{
	"fg": 7,
	"bg": -1,

	"titles": 7,
	"borders":  6,

	"battery_lines": [4, 3, 2, 1, 5, 6, 7, 8],

	"cpu_lines": [4, 3, 2, 1, 5, 6, 7, 8],

	"mem_main": 5,
	"mem_swap": 11,

	"net_bars": 4,

	"proc_cursor": 4,

	"temp_low":  2,
	"temp_high": 1
}